agency_code,company_code,agency_admin_code,own,liquidation_type
PRC-CAT,PRC-BND,PRC-CAT,"",""
PRP-000,PRP-PDC,PRP-000,NO,F
PRP-001,PRP-PDC,PRP-ATM,NO,F
PRP-002,PRP-PDC,PRP-ATM,NO,F
PRP-003,PRP-PDC,PRP-ATM,NO,F
PRP-004,PRP-PDC,PRP-AND,NO,F
PRP-005,PRP-PDC,PRP-ATM,NO,F
PRP-006,PRP-PDC,PRP-ADC,NO,F
PRP-008,PRP-PDC,PRP-AND,NO,F
PRP-009,PRP-PDC,PRP-PRE,NO,F
