<?xml version="1.0" encoding="UTF-8" standalone="no"?>
<!DOCTYPE svg PUBLIC "-//W3C//DTD SVG 1.1//EN"
 "http://www.w3.org/Graphics/SVG/1.1/DTD/svg11.dtd">
<!-- Generated by graphviz version 2.38.0 (20140413.2041)
 -->
<!-- Title: models_diagram Pages: 1 -->
<svg width="1180pt" height="220pt"
 viewBox="0.00 0.00 1179.50 220.00" xmlns="http://www.w3.org/2000/svg" xmlns:xlink="http://www.w3.org/1999/xlink">
<g id="graph0" class="graph" transform="scale(1 1) rotate(0) translate(4 216)">
<title>models_diagram</title>
<polygon fill="none" stroke="none" points="-4,4 -4,-216 1175.5,-216 1175.5,4 -4,4"/>
<!-- _diagram_info -->
<g id="node1" class="node"><title>_diagram_info</title>
<text text-anchor="start" x="8" y="-130.6" font-family="Times,serif" font-size="13.00">Models diagram</text>
<text text-anchor="start" x="8" y="-116.6" font-family="Times,serif" font-size="13.00">Date: Feb 15 2017 &#45; 15:29</text>
<text text-anchor="start" x="8" y="-102.6" font-family="Times,serif" font-size="13.00">Migration version: 20170214144920</text>
<text text-anchor="start" x="8" y="-88.6" font-family="Times,serif" font-size="13.00">Generated by RailRoady 1.5.2</text>
<text text-anchor="start" x="8" y="-74.6" font-family="Times,serif" font-size="13.00">http://railroady.prestonlee.com</text>
</g>
<!-- Expense -->
<g id="node2" class="node"><title>Expense</title>
<path fill="none" stroke="black" d="M244,-0.5C244,-0.5 404,-0.5 404,-0.5 410,-0.5 416,-6.5 416,-12.5 416,-12.5 416,-199.5 416,-199.5 416,-205.5 410,-211.5 404,-211.5 404,-211.5 244,-211.5 244,-211.5 238,-211.5 232,-205.5 232,-199.5 232,-199.5 232,-12.5 232,-12.5 232,-6.5 238,-0.5 244,-0.5"/>
<text text-anchor="middle" x="324" y="-196.3" font-family="Times,serif" font-size="14.00">Expense</text>
<polyline fill="none" stroke="black" points="232,-188.5 416,-188.5 "/>
<text text-anchor="start" x="240" y="-173.3" font-family="Times,serif" font-size="14.00">id :INTEGER</text>
<text text-anchor="start" x="240" y="-158.3" font-family="Times,serif" font-size="14.00">commerce_number :integer</text>
<text text-anchor="start" x="240" y="-143.3" font-family="Times,serif" font-size="14.00">receipt_number :integer</text>
<text text-anchor="start" x="240" y="-128.3" font-family="Times,serif" font-size="14.00">receipt_date :date</text>
<text text-anchor="start" x="240" y="-113.3" font-family="Times,serif" font-size="14.00">description :varchar</text>
<text text-anchor="start" x="240" y="-98.3" font-family="Times,serif" font-size="14.00">receipt_amount :decimal</text>
<text text-anchor="start" x="240" y="-83.3" font-family="Times,serif" font-size="14.00">currency_id :integer</text>
<text text-anchor="start" x="240" y="-68.3" font-family="Times,serif" font-size="14.00">payment_condition_id :integer</text>
<text text-anchor="start" x="240" y="-53.3" font-family="Times,serif" font-size="14.00">cost_center_id :integer</text>
<text text-anchor="start" x="240" y="-38.3" font-family="Times,serif" font-size="14.00">work_order_id :integer</text>
<text text-anchor="start" x="240" y="-23.3" font-family="Times,serif" font-size="14.00">created_at :datetime</text>
<text text-anchor="start" x="240" y="-8.3" font-family="Times,serif" font-size="14.00">updated_at :datetime</text>
</g>
<!-- System -->
<g id="node3" class="node"><title>System</title>
<path fill="none" stroke="black" d="M446.5,-45.5C446.5,-45.5 553.5,-45.5 553.5,-45.5 559.5,-45.5 565.5,-51.5 565.5,-57.5 565.5,-57.5 565.5,-154.5 565.5,-154.5 565.5,-160.5 559.5,-166.5 553.5,-166.5 553.5,-166.5 446.5,-166.5 446.5,-166.5 440.5,-166.5 434.5,-160.5 434.5,-154.5 434.5,-154.5 434.5,-57.5 434.5,-57.5 434.5,-51.5 440.5,-45.5 446.5,-45.5"/>
<text text-anchor="middle" x="500" y="-151.3" font-family="Times,serif" font-size="14.00">System</text>
<polyline fill="none" stroke="black" points="434.5,-143.5 565.5,-143.5 "/>
<text text-anchor="start" x="442.5" y="-128.3" font-family="Times,serif" font-size="14.00">id :INTEGER</text>
<text text-anchor="start" x="442.5" y="-113.3" font-family="Times,serif" font-size="14.00">name :varchar</text>
<text text-anchor="start" x="442.5" y="-98.3" font-family="Times,serif" font-size="14.00">created_at :datetime</text>
<text text-anchor="start" x="442.5" y="-83.3" font-family="Times,serif" font-size="14.00">updated_at :datetime</text>
<text text-anchor="start" x="442.5" y="-68.3" font-family="Times,serif" font-size="14.00">code :varchar</text>
<text text-anchor="start" x="442.5" y="-53.3" font-family="Times,serif" font-size="14.00">company :varchar</text>
</g>
<!-- PaymentCondition -->
<g id="node4" class="node"><title>PaymentCondition</title>
<path fill="none" stroke="black" d="M595.5,-60.5C595.5,-60.5 702.5,-60.5 702.5,-60.5 708.5,-60.5 714.5,-66.5 714.5,-72.5 714.5,-72.5 714.5,-139.5 714.5,-139.5 714.5,-145.5 708.5,-151.5 702.5,-151.5 702.5,-151.5 595.5,-151.5 595.5,-151.5 589.5,-151.5 583.5,-145.5 583.5,-139.5 583.5,-139.5 583.5,-72.5 583.5,-72.5 583.5,-66.5 589.5,-60.5 595.5,-60.5"/>
<text text-anchor="middle" x="649" y="-136.3" font-family="Times,serif" font-size="14.00">PaymentCondition</text>
<polyline fill="none" stroke="black" points="583.5,-128.5 714.5,-128.5 "/>
<text text-anchor="start" x="591.5" y="-113.3" font-family="Times,serif" font-size="14.00">id :INTEGER</text>
<text text-anchor="start" x="591.5" y="-98.3" font-family="Times,serif" font-size="14.00">name :varchar</text>
<text text-anchor="start" x="591.5" y="-83.3" font-family="Times,serif" font-size="14.00">created_at :datetime</text>
<text text-anchor="start" x="591.5" y="-68.3" font-family="Times,serif" font-size="14.00">updated_at :datetime</text>
</g>
<!-- WorkOrder -->
<g id="node5" class="node"><title>WorkOrder</title>
<path fill="none" stroke="black" d="M744.5,-60.5C744.5,-60.5 861.5,-60.5 861.5,-60.5 867.5,-60.5 873.5,-66.5 873.5,-72.5 873.5,-72.5 873.5,-139.5 873.5,-139.5 873.5,-145.5 867.5,-151.5 861.5,-151.5 861.5,-151.5 744.5,-151.5 744.5,-151.5 738.5,-151.5 732.5,-145.5 732.5,-139.5 732.5,-139.5 732.5,-72.5 732.5,-72.5 732.5,-66.5 738.5,-60.5 744.5,-60.5"/>
<text text-anchor="middle" x="803" y="-136.3" font-family="Times,serif" font-size="14.00">WorkOrder</text>
<polyline fill="none" stroke="black" points="732.5,-128.5 873.5,-128.5 "/>
<text text-anchor="start" x="740.5" y="-113.3" font-family="Times,serif" font-size="14.00">id :INTEGER</text>
<text text-anchor="start" x="740.5" y="-98.3" font-family="Times,serif" font-size="14.00">gobbi_number :integer</text>
<text text-anchor="start" x="740.5" y="-83.3" font-family="Times,serif" font-size="14.00">created_at :datetime</text>
<text text-anchor="start" x="740.5" y="-68.3" font-family="Times,serif" font-size="14.00">updated_at :datetime</text>
</g>
<!-- CostCenter -->
<g id="node6" class="node"><title>CostCenter</title>
<path fill="none" stroke="black" d="M903.5,-60.5C903.5,-60.5 1010.5,-60.5 1010.5,-60.5 1016.5,-60.5 1022.5,-66.5 1022.5,-72.5 1022.5,-72.5 1022.5,-139.5 1022.5,-139.5 1022.5,-145.5 1016.5,-151.5 1010.5,-151.5 1010.5,-151.5 903.5,-151.5 903.5,-151.5 897.5,-151.5 891.5,-145.5 891.5,-139.5 891.5,-139.5 891.5,-72.5 891.5,-72.5 891.5,-66.5 897.5,-60.5 903.5,-60.5"/>
<text text-anchor="middle" x="957" y="-136.3" font-family="Times,serif" font-size="14.00">CostCenter</text>
<polyline fill="none" stroke="black" points="891.5,-128.5 1022.5,-128.5 "/>
<text text-anchor="start" x="899.5" y="-113.3" font-family="Times,serif" font-size="14.00">id :INTEGER</text>
<text text-anchor="start" x="899.5" y="-98.3" font-family="Times,serif" font-size="14.00">name :varchar</text>
<text text-anchor="start" x="899.5" y="-83.3" font-family="Times,serif" font-size="14.00">created_at :datetime</text>
<text text-anchor="start" x="899.5" y="-68.3" font-family="Times,serif" font-size="14.00">updated_at :datetime</text>
</g>
<!-- Currency -->
<g id="node7" class="node"><title>Currency</title>
<path fill="none" stroke="black" d="M1052.5,-53C1052.5,-53 1159.5,-53 1159.5,-53 1165.5,-53 1171.5,-59 1171.5,-65 1171.5,-65 1171.5,-147 1171.5,-147 1171.5,-153 1165.5,-159 1159.5,-159 1159.5,-159 1052.5,-159 1052.5,-159 1046.5,-159 1040.5,-153 1040.5,-147 1040.5,-147 1040.5,-65 1040.5,-65 1040.5,-59 1046.5,-53 1052.5,-53"/>
<text text-anchor="middle" x="1106" y="-143.8" font-family="Times,serif" font-size="14.00">Currency</text>
<polyline fill="none" stroke="black" points="1040.5,-136 1171.5,-136 "/>
<text text-anchor="start" x="1048.5" y="-120.8" font-family="Times,serif" font-size="14.00">id :INTEGER</text>
<text text-anchor="start" x="1048.5" y="-105.8" font-family="Times,serif" font-size="14.00">name :varchar</text>
<text text-anchor="start" x="1048.5" y="-90.8" font-family="Times,serif" font-size="14.00">symbol :varchar</text>
<text text-anchor="start" x="1048.5" y="-75.8" font-family="Times,serif" font-size="14.00">created_at :datetime</text>
<text text-anchor="start" x="1048.5" y="-60.8" font-family="Times,serif" font-size="14.00">updated_at :datetime</text>
</g>
</g>
</svg>
